{
  "name": "Categorization",
  "base": "PersistedModel",
  "idInjection": true,
  "options": {
    "validateUpsert": true
  },
  "properties": {
    "type": {
      "type": "string",
      "required": true
    },
    "body": {
      "type": "string",
      "required": true
    },
    "position": {
      "type": "number",
      "required": false
    }
  },
  "validations": [],
  "relations": {
    "li-news": {
      "type": "hasMany",
      "model": "li-news",
      "foreignKey": "categorizationId",
      "through": "ItemCategorization",
      "keyThrough": "categorizationId"
    },
    "sg-article": {
      "type": "hasMany",
      "model": "sg-article",
      "foreignKey": "categorizationId",
      "through": "ItemCategorization",
      "keyThrough": "categorizationId"
    }
  },
  "acls": [
    {
      "accessType": "*",
      "principalType": "ROLE",
      "principalId": "$everyone",
      "permission": "ALLOW"
    }
  ],
  "methods": {}
}
