{
  "name": "EditorUser",
  "base": "User",
  "idInjection": true,
  "options": {
    "validateUpsert": true
  },
  "properties": {
    "fullname": {
      "type": "string",
      "required": true
    },
    "password_change": {
      "type": "boolean",
      "required": true
    },
    "active": {
      "type": "boolean",
      "required": true
    }
  },
  "validations": [],
  "relations": {
    "items": {
      "type": "hasMany",
      "model": "Item",
      "foreignKey": ""
    },
    "roles": {
      "type": "hasMany",
      "model": "Role",
      "foreignKey": "principalId",
      "through": "RoleMapping"
    }
  },
  "acls": [
    {
      "accessType": "*",
      "principalType": "ROLE",
      "principalId": "$everyone",
      "permission": "ALLOW"
    },
    {
      "principalType": "ROLE",
      "principalId": "$owner",
      "permission": "ALLOW",
      "property": "__get__items"
    },
    {
      "principalType": "ROLE",
      "principalId": "$owner",
      "permission": "ALLOW",
      "property": "__create__items"
    },
    {
      "accessType": "*",
      "principalType": "ROLE",
      "principalId": "$everyone",
      "permission": "ALLOW"
    },
    {
      "accessType": "EXECUTE",
      "principalType": "ROLE",
      "principalId": "$everyone",
      "permission": "ALLOW",
      "property": "find"
    },
    {
      "accessType": "EXECUTE",
      "principalType": "ROLE",
      "principalId": "$everyone",
      "permission": "ALLOW",
      "property": "findById"
    },
    {
      "accessType": "EXECUTE",
      "principalType": "ROLE",
      "principalId": "$everyone",
      "permission": "ALLOW",
      "property": "deleteById"
    },
    {
      "accessType": "EXECUTE",
      "principalType": "ROLE",
      "principalId": "$everyone",
      "permission": "ALLOW",
      "property": "updateAttributes"
    },
    {
      "accessType": "EXECUTE",
      "principalType": "ROLE",
      "principalId": "$everyone",
      "permission": "ALLOW",
      "property": "count"
    },
    {
      "accessType": "EXECUTE",
      "principalType": "ROLE",
      "principalId": "$everyone",
      "permission": "ALLOW",
      "property": "search"
    },
    {
      "accessType": "EXECUTE",
      "principalType": "ROLE",
      "principalId": "$everyone",
      "permission": "ALLOW",
      "property": "searchCount"
    }
  ],
  "methods": {}
}
