{
  "name": "Item",
  "base": "PersistedModel",
  "idInjection": true,
  "options": {
    "validateUpsert": true
  },
  "properties": {
    "creation_date": {
      "type": "date",
      "required": false
    },
    "modification_date": {
      "type": "date",
      "required": false
    },
    "publication_change_date": {
      "type": "date",
      "required": false
    },
    "publish_date_start": {
      "type": "date",
      "required": false
    },
    "publish_date_end": {
      "type": "date",
      "required": false
    },
    "body": {
      "type": "text",
      "required": false
    },
    "title": {
      "type": "string",
      "required": true
    },
    "active": {
      "type": "boolean",
      "required": false,
      "default": false
    },
    "locked": {
      "type": "number",
      "required": false,
      "default": 0
    },
    "tags": {
      "type": [
        "string"
      ]
    }
  },
  "validations": [],
  "relations": {
    "creatorUser": {
      "type": "belongsTo",
      "model": "EditorUser",
      "foreignKey": "creatorUserId"
    },
    "updaterUser": {
      "type": "belongsTo",
      "model": "EditorUser",
      "foreignKey": "updaterUserId"
    },
    "images": {
      "type": "hasMany",
      "model": "Image",
      "foreignKey": ""
    },
    "tweet": {
      "type": "hasMany",
      "model": "Tweet",
      "foreignKey": ""
    },
    "youtube": {
      "type": "hasMany",
      "model": "Youtube",
      "foreignKey": ""
    }
  },
  "acls": [
    {
      "accessType": "*",
      "principalType": "ROLE",
      "principalId": "$everyone",
      "permission": "ALLOW"
    },
    {
      "accessType": "*",
      "principalType": "ROLE",
      "principalId": "$everyone",
      "permission": "ALLOW"
    }
  ],
  "methods": {}
}
